\relax 
\providecommand\hyper@newdestlabel[2]{}
\providecommand\BKM@entry[2]{}
\providecommand\HyperFirstAtBeginDocument{\AtBeginDocument}
\HyperFirstAtBeginDocument{\ifx\hyper@anchor\@undefined
\global\let\oldcontentsline\contentsline
\gdef\contentsline#1#2#3#4{\oldcontentsline{#1}{#2}{#3}}
\global\let\oldnewlabel\newlabel
\gdef\newlabel#1#2{\newlabelxx{#1}#2}
\gdef\newlabelxx#1#2#3#4#5#6{\oldnewlabel{#1}{{#2}{#3}}}
\AtEndDocument{\ifx\hyper@anchor\@undefined
\let\contentsline\oldcontentsline
\let\newlabel\oldnewlabel
\fi}
\fi}
\global\let\hyper@last\relax 
\gdef\HyperFirstAtBeginDocument#1{#1}
\providecommand\HyField@AuxAddToFields[1]{}
\providecommand\HyField@AuxAddToCoFields[2]{}
\bibstyle{biblatex}
\bibdata{slides_ia_drone_security-blx,../bibliography}
\citation{biblatex-control}
\@writefile{toc}{\boolfalse {citerequest}\boolfalse {citetracker}\boolfalse {pagetracker}\boolfalse {backtracker}\relax }
\@writefile{lof}{\boolfalse {citerequest}\boolfalse {citetracker}\boolfalse {pagetracker}\boolfalse {backtracker}\relax }
\@writefile{lot}{\boolfalse {citerequest}\boolfalse {citetracker}\boolfalse {pagetracker}\boolfalse {backtracker}\relax }
\@writefile{toc}{\defcounter {refsection}{0}\relax }\@writefile{toc}{\beamer@endinputifotherversion {3.36pt}}
\@writefile{nav}{\defcounter {refsection}{0}\relax }\@writefile{nav}{\beamer@endinputifotherversion {3.36pt}}
\select@language{italian}
\@writefile{toc}{\defcounter {refsection}{0}\relax }\@writefile{toc}{\select@language{italian}}
\@writefile{lof}{\defcounter {refsection}{0}\relax }\@writefile{lof}{\select@language{italian}}
\@writefile{lot}{\defcounter {refsection}{0}\relax }\@writefile{lot}{\select@language{italian}}
\select@language{italian}
\@writefile{toc}{\defcounter {refsection}{0}\relax }\@writefile{toc}{\select@language{italian}}
\@writefile{lof}{\defcounter {refsection}{0}\relax }\@writefile{lof}{\select@language{italian}}
\@writefile{lot}{\defcounter {refsection}{0}\relax }\@writefile{lot}{\select@language{italian}}
\@writefile{nav}{\defcounter {refsection}{0}\relax }\@writefile{nav}{\headcommand {\slideentry {0}{0}{1}{1/1}{}{0}}}
\@writefile{nav}{\defcounter {refsection}{0}\relax }\@writefile{nav}{\headcommand {\beamer@framepages {1}{1}}}
\BKM@entry{id=1,open,dest={4F75746C696E65302E31},srcline={1}}{5C3337365C3337375C303030415C3030306E5C303030615C3030306C5C303030695C303030735C303030695C3030305C3034305C303030645C303030655C303030675C3030306C5C303030695C3030305C3034305C303030495C3030306E5C303030745C303030655C303030725C303030765C303030615C3030306C5C3030306C5C30303069}
\@writefile{toc}{\defcounter {refsection}{0}\relax }\@writefile{toc}{\beamer@sectionintoc {1}{Analisi degli Intervalli}{3}{0}{1}}
\@writefile{nav}{\defcounter {refsection}{0}\relax }\@writefile{nav}{\headcommand {\sectionentry {1}{Analisi degli Intervalli}{3}{Analisi degli Intervalli}{0}}}
\@writefile{nav}{\defcounter {refsection}{0}\relax }\@writefile{nav}{\headcommand {\beamer@sectionpages {1}{2}}}
\@writefile{nav}{\defcounter {refsection}{0}\relax }\@writefile{nav}{\headcommand {\beamer@subsectionpages {1}{2}}}
\@writefile{nav}{\defcounter {refsection}{0}\relax }\@writefile{nav}{\headcommand {\slideentry {1}{0}{1}{3/3}{}{0}}}
\@writefile{nav}{\defcounter {refsection}{0}\relax }\@writefile{nav}{\headcommand {\beamer@framepages {3}{3}}}
\BKM@entry{id=2,open,dest={4F75746C696E65302E312E312E35},srcline={3}}{5C3337365C3337375C303030495C3030306E5C303030745C303030725C3030306F5C303030645C303030755C3030307A5C303030695C3030306F5C3030306E5C30303065}
\@writefile{toc}{\defcounter {refsection}{0}\relax }\@writefile{toc}{\beamer@subsectionintoc {1}{1}{Introduzione}{5}{0}{1}}
\@writefile{nav}{\defcounter {refsection}{0}\relax }\@writefile{nav}{\headcommand {\beamer@subsectionentry {0}{1}{1}{5}{Introduzione}}\headcommand {\beamer@subsectionpages {3}{4}}}
\@writefile{nav}{\defcounter {refsection}{0}\relax }\@writefile{nav}{\headcommand {\slideentry {1}{1}{1}{5/5}{Introduzione}{0}}}
\@writefile{nav}{\defcounter {refsection}{0}\relax }\@writefile{nav}{\headcommand {\beamer@framepages {5}{5}}}
\@writefile{nav}{\defcounter {refsection}{0}\relax }\@writefile{nav}{\headcommand {\slideentry {1}{1}{2}{6/6}{Introduzione}{0}}}
\@writefile{nav}{\defcounter {refsection}{0}\relax }\@writefile{nav}{\headcommand {\beamer@framepages {6}{6}}}
\citation{carreras2001interval}
\citation{rao1998inverse}
\citation{piazzi2000global}
\citation{globOpt}
\@writefile{nav}{\defcounter {refsection}{0}\relax }\@writefile{nav}{\headcommand {\slideentry {1}{1}{3}{7/7}{Introduzione}{0}}}
\@writefile{nav}{\defcounter {refsection}{0}\relax }\@writefile{nav}{\headcommand {\beamer@framepages {7}{7}}}
\BKM@entry{id=3,open,dest={4F75746C696E65302E312E322E38},srcline={24}}{5C3337365C3337375C303030565C303030615C3030306C5C303030755C303030745C303030615C3030307A5C303030695C3030306F5C3030306E5C303030655C3030305C3034305C303030645C303030655C303030675C3030306C5C303030695C3030305C3034305C303030495C3030306E5C303030745C303030655C303030725C303030765C303030615C3030306C5C3030306C5C30303069}
\@writefile{toc}{\defcounter {refsection}{0}\relax }\@writefile{toc}{\beamer@subsectionintoc {1}{2}{Valutazione degli Intervalli}{8}{0}{1}}
\@writefile{nav}{\defcounter {refsection}{0}\relax }\@writefile{nav}{\headcommand {\beamer@subsectionentry {0}{1}{2}{8}{Valutazione degli Intervalli}}\headcommand {\beamer@subsectionpages {5}{7}}}
\@writefile{nav}{\defcounter {refsection}{0}\relax }\@writefile{nav}{\headcommand {\slideentry {1}{2}{1}{8/8}{Valutazione degli Intervalli}{0}}}
\@writefile{nav}{\defcounter {refsection}{0}\relax }\@writefile{nav}{\headcommand {\beamer@framepages {8}{8}}}
\@writefile{nav}{\defcounter {refsection}{0}\relax }\@writefile{nav}{\headcommand {\slideentry {1}{2}{2}{9/9}{Valutazione degli Intervalli}{0}}}
\@writefile{nav}{\defcounter {refsection}{0}\relax }\@writefile{nav}{\headcommand {\beamer@framepages {9}{9}}}
\@writefile{nav}{\defcounter {refsection}{0}\relax }\@writefile{nav}{\headcommand {\slideentry {1}{2}{3}{10/10}{Valutazione degli Intervalli}{0}}}
\@writefile{nav}{\defcounter {refsection}{0}\relax }\@writefile{nav}{\headcommand {\beamer@framepages {10}{10}}}
\BKM@entry{id=4,open,dest={4F75746C696E65302E312E332E3131},srcline={47}}{5C3337365C3337375C303030455C303030735C303030655C3030306D5C303030705C303030695C3030306F}
\@writefile{toc}{\defcounter {refsection}{0}\relax }\@writefile{toc}{\beamer@subsectionintoc {1}{3}{Esempio}{11}{0}{1}}
\@writefile{nav}{\defcounter {refsection}{0}\relax }\@writefile{nav}{\headcommand {\beamer@subsectionentry {0}{1}{3}{11}{Esempio}}\headcommand {\beamer@subsectionpages {8}{10}}}
\@writefile{nav}{\defcounter {refsection}{0}\relax }\@writefile{nav}{\headcommand {\slideentry {1}{3}{1}{11/11}{Esempio}{0}}}
\@writefile{nav}{\defcounter {refsection}{0}\relax }\@writefile{nav}{\headcommand {\beamer@framepages {11}{11}}}
\@writefile{nav}{\defcounter {refsection}{0}\relax }\@writefile{nav}{\headcommand {\slideentry {1}{3}{2}{12/12}{Esempio}{0}}}
\@writefile{nav}{\defcounter {refsection}{0}\relax }\@writefile{nav}{\headcommand {\beamer@framepages {12}{12}}}
\@writefile{nav}{\defcounter {refsection}{0}\relax }\@writefile{nav}{\headcommand {\slideentry {1}{3}{3}{13/13}{Esempio}{0}}}
\@writefile{nav}{\defcounter {refsection}{0}\relax }\@writefile{nav}{\headcommand {\beamer@framepages {13}{13}}}
\@writefile{nav}{\defcounter {refsection}{0}\relax }\@writefile{nav}{\headcommand {\slideentry {1}{3}{4}{14/14}{Esempio}{0}}}
\@writefile{nav}{\defcounter {refsection}{0}\relax }\@writefile{nav}{\headcommand {\beamer@framepages {14}{14}}}
\@writefile{nav}{\defcounter {refsection}{0}\relax }\@writefile{nav}{\headcommand {\slideentry {1}{3}{5}{15/15}{Esempio}{0}}}
\@writefile{nav}{\defcounter {refsection}{0}\relax }\@writefile{nav}{\headcommand {\beamer@framepages {15}{15}}}
\@writefile{nav}{\defcounter {refsection}{0}\relax }\@writefile{nav}{\headcommand {\slideentry {1}{3}{6}{16/16}{Esempio}{0}}}
\@writefile{nav}{\defcounter {refsection}{0}\relax }\@writefile{nav}{\headcommand {\beamer@framepages {16}{16}}}
\citation{wiki:kantTheorem}
\@writefile{nav}{\defcounter {refsection}{0}\relax }\@writefile{nav}{\headcommand {\slideentry {1}{3}{7}{17/17}{Esempio}{0}}}
\@writefile{nav}{\defcounter {refsection}{0}\relax }\@writefile{nav}{\headcommand {\beamer@framepages {17}{17}}}
\@writefile{nav}{\defcounter {refsection}{0}\relax }\@writefile{nav}{\headcommand {\slideentry {1}{3}{8}{18/18}{Esempio}{0}}}
\@writefile{nav}{\defcounter {refsection}{0}\relax }\@writefile{nav}{\headcommand {\beamer@framepages {18}{18}}}
\@writefile{nav}{\defcounter {refsection}{0}\relax }\@writefile{nav}{\headcommand {\slideentry {1}{3}{9}{19/19}{Esempio}{0}}}
\@writefile{nav}{\defcounter {refsection}{0}\relax }\@writefile{nav}{\headcommand {\beamer@framepages {19}{19}}}
\BKM@entry{id=5,open,dest={4F75746C696E65302E32},srcline={1}}{5C3337365C3337375C303030435C303030615C303030735C303030695C3030305C3034305C303030645C303030695C3030305C3034305C303030535C303030745C303030755C303030645C303030695C3030306F}
\@writefile{toc}{\defcounter {refsection}{0}\relax }\@writefile{toc}{\beamer@sectionintoc {2}{Casi di Studio}{20}{0}{2}}
\@writefile{nav}{\defcounter {refsection}{0}\relax }\@writefile{nav}{\headcommand {\sectionentry {2}{Casi di Studio}{20}{Casi di Studio}{0}}}
\@writefile{nav}{\defcounter {refsection}{0}\relax }\@writefile{nav}{\headcommand {\beamer@sectionpages {3}{19}}}
\@writefile{nav}{\defcounter {refsection}{0}\relax }\@writefile{nav}{\headcommand {\beamer@subsectionpages {11}{19}}}
\@writefile{nav}{\defcounter {refsection}{0}\relax }\@writefile{nav}{\headcommand {\slideentry {2}{0}{1}{20/20}{}{0}}}
\@writefile{nav}{\defcounter {refsection}{0}\relax }\@writefile{nav}{\headcommand {\beamer@framepages {20}{20}}}
\BKM@entry{id=6,open,dest={4F75746C696E65302E322E312E3231},srcline={2}}{5C3337365C3337375C303030435C303030695C3030306E5C303030655C3030306D5C303030615C303030745C303030695C303030635C30303061}
\@writefile{toc}{\defcounter {refsection}{0}\relax }\@writefile{toc}{\beamer@subsectionintoc {2}{1}{Cinematica}{21}{0}{2}}
\@writefile{nav}{\defcounter {refsection}{0}\relax }\@writefile{nav}{\headcommand {\beamer@subsectionentry {0}{2}{1}{21}{Cinematica}}\headcommand {\beamer@subsectionpages {20}{20}}}
\@writefile{nav}{\defcounter {refsection}{0}\relax }\@writefile{nav}{\headcommand {\slideentry {2}{1}{1}{21/21}{Cinematica}{0}}}
\@writefile{nav}{\defcounter {refsection}{0}\relax }\@writefile{nav}{\headcommand {\beamer@framepages {21}{21}}}
\@writefile{nav}{\defcounter {refsection}{0}\relax }\@writefile{nav}{\headcommand {\slideentry {2}{1}{2}{22/22}{Cinematica}{0}}}
\@writefile{nav}{\defcounter {refsection}{0}\relax }\@writefile{nav}{\headcommand {\beamer@framepages {22}{22}}}
\@writefile{nav}{\defcounter {refsection}{0}\relax }\@writefile{nav}{\headcommand {\slideentry {2}{1}{3}{23/23}{Cinematica}{0}}}
\@writefile{nav}{\defcounter {refsection}{0}\relax }\@writefile{nav}{\headcommand {\beamer@framepages {23}{23}}}
\citation{merlet2004solving}
\@writefile{nav}{\defcounter {refsection}{0}\relax }\@writefile{nav}{\headcommand {\slideentry {2}{1}{4}{24/24}{Cinematica}{0}}}
\@writefile{nav}{\defcounter {refsection}{0}\relax }\@writefile{nav}{\headcommand {\beamer@framepages {24}{24}}}
\BKM@entry{id=7,open,dest={4F75746C696E65302E322E322E3235},srcline={46}}{5C3337365C3337375C303030415C3030306E5C303030615C3030306C5C303030695C303030735C303030695C3030305C3034305C303030645C303030655C3030306C5C3030306C5C303030655C3030305C3034305C303030535C303030695C3030306E5C303030675C3030306F5C3030306C5C303030615C303030725C303030695C303030745C3030305C333430}
\@writefile{toc}{\defcounter {refsection}{0}\relax }\@writefile{toc}{\beamer@subsectionintoc {2}{2}{Analisi delle Singolarit\IeC {\`a}}{25}{0}{2}}
\@writefile{nav}{\defcounter {refsection}{0}\relax }\@writefile{nav}{\headcommand {\beamer@subsectionentry {0}{2}{2}{25}{Analisi delle Singolarit\IeC {\`a}}}\headcommand {\beamer@subsectionpages {21}{24}}}
\@writefile{nav}{\defcounter {refsection}{0}\relax }\@writefile{nav}{\headcommand {\slideentry {2}{2}{1}{25/25}{Analisi delle Singolarit\IeC {\`a}}{0}}}
\@writefile{nav}{\defcounter {refsection}{0}\relax }\@writefile{nav}{\headcommand {\beamer@framepages {25}{25}}}
\@writefile{nav}{\defcounter {refsection}{0}\relax }\@writefile{nav}{\headcommand {\slideentry {2}{2}{2}{26/26}{Analisi delle Singolarit\IeC {\`a}}{0}}}
\@writefile{nav}{\defcounter {refsection}{0}\relax }\@writefile{nav}{\headcommand {\beamer@framepages {26}{26}}}
\@writefile{nav}{\defcounter {refsection}{0}\relax }\@writefile{nav}{\headcommand {\slideentry {2}{2}{3}{27/27}{Analisi delle Singolarit\IeC {\`a}}{0}}}
\@writefile{nav}{\defcounter {refsection}{0}\relax }\@writefile{nav}{\headcommand {\beamer@framepages {27}{27}}}
\@writefile{nav}{\defcounter {refsection}{0}\relax }\@writefile{nav}{\headcommand {\slideentry {2}{2}{4}{28/28}{Analisi delle Singolarit\IeC {\`a}}{0}}}
\@writefile{nav}{\defcounter {refsection}{0}\relax }\@writefile{nav}{\headcommand {\beamer@framepages {28}{28}}}
\@writefile{nav}{\defcounter {refsection}{0}\relax }\@writefile{nav}{\headcommand {\slideentry {2}{2}{5}{29/29}{Analisi delle Singolarit\IeC {\`a}}{0}}}
\@writefile{nav}{\defcounter {refsection}{0}\relax }\@writefile{nav}{\headcommand {\beamer@framepages {29}{29}}}
\citation{rao1998inverse}
\@writefile{nav}{\defcounter {refsection}{0}\relax }\@writefile{nav}{\headcommand {\slideentry {2}{2}{6}{30/30}{Analisi delle Singolarit\IeC {\`a}}{0}}}
\@writefile{nav}{\defcounter {refsection}{0}\relax }\@writefile{nav}{\headcommand {\beamer@framepages {30}{30}}}
\@writefile{nav}{\defcounter {refsection}{0}\relax }\@writefile{nav}{\headcommand {\slideentry {2}{2}{7}{31/31}{Analisi delle Singolarit\IeC {\`a}}{0}}}
\@writefile{nav}{\defcounter {refsection}{0}\relax }\@writefile{nav}{\headcommand {\beamer@framepages {31}{31}}}
\BKM@entry{id=8,open,dest={4F75746C696E65302E33},srcline={1}}{5C3337365C3337375C303030465C303030615C303030755C3030306C5C303030745C3030305C3034305C303030545C303030725C303030655C303030655C3030305C3034305C303030655C3030305C3034305C303030415C3030306E5C303030615C3030306C5C303030695C303030735C303030695C3030305C3034305C303030645C303030655C303030675C3030306C5C303030695C3030305C3034305C303030495C3030306E5C303030745C303030655C303030725C303030765C303030615C3030306C5C3030306C5C30303069}
\@writefile{toc}{\defcounter {refsection}{0}\relax }\@writefile{toc}{\beamer@sectionintoc {3}{Fault Tree e Analisi degli Intervalli}{32}{0}{3}}
\@writefile{nav}{\defcounter {refsection}{0}\relax }\@writefile{nav}{\headcommand {\sectionentry {3}{Fault Tree e Analisi degli Intervalli}{32}{Fault Tree e Analisi degli Intervalli}{0}}}
\@writefile{nav}{\defcounter {refsection}{0}\relax }\@writefile{nav}{\headcommand {\beamer@sectionpages {20}{31}}}
\@writefile{nav}{\defcounter {refsection}{0}\relax }\@writefile{nav}{\headcommand {\beamer@subsectionpages {25}{31}}}
\@writefile{nav}{\defcounter {refsection}{0}\relax }\@writefile{nav}{\headcommand {\slideentry {3}{0}{1}{32/32}{}{0}}}
\@writefile{nav}{\defcounter {refsection}{0}\relax }\@writefile{nav}{\headcommand {\beamer@framepages {32}{32}}}
\citation{dugan1996new}
\citation{vesely1981fault}
\citation{visinsky1994robotic}
\@writefile{nav}{\defcounter {refsection}{0}\relax }\@writefile{nav}{\headcommand {\slideentry {3}{0}{2}{33/33}{}{0}}}
\@writefile{nav}{\defcounter {refsection}{0}\relax }\@writefile{nav}{\headcommand {\beamer@framepages {33}{33}}}
\@writefile{nav}{\defcounter {refsection}{0}\relax }\@writefile{nav}{\headcommand {\slideentry {3}{0}{3}{34/34}{}{0}}}
\@writefile{nav}{\defcounter {refsection}{0}\relax }\@writefile{nav}{\headcommand {\beamer@framepages {34}{34}}}
\@writefile{nav}{\defcounter {refsection}{0}\relax }\@writefile{nav}{\headcommand {\slideentry {3}{0}{4}{35/35}{}{0}}}
\@writefile{nav}{\defcounter {refsection}{0}\relax }\@writefile{nav}{\headcommand {\beamer@framepages {35}{35}}}
\@writefile{nav}{\defcounter {refsection}{0}\relax }\@writefile{nav}{\headcommand {\slideentry {3}{0}{5}{36/36}{}{0}}}
\@writefile{nav}{\defcounter {refsection}{0}\relax }\@writefile{nav}{\headcommand {\beamer@framepages {36}{36}}}
\@writefile{nav}{\defcounter {refsection}{0}\relax }\@writefile{nav}{\headcommand {\slideentry {3}{0}{6}{37/37}{}{0}}}
\@writefile{nav}{\defcounter {refsection}{0}\relax }\@writefile{nav}{\headcommand {\beamer@framepages {37}{37}}}
\@writefile{nav}{\defcounter {refsection}{0}\relax }\@writefile{nav}{\headcommand {\slideentry {3}{0}{7}{38/38}{}{0}}}
\@writefile{nav}{\defcounter {refsection}{0}\relax }\@writefile{nav}{\headcommand {\beamer@framepages {38}{38}}}
\@writefile{nav}{\defcounter {refsection}{0}\relax }\@writefile{nav}{\headcommand {\slideentry {3}{0}{8}{39/39}{}{0}}}
\@writefile{nav}{\defcounter {refsection}{0}\relax }\@writefile{nav}{\headcommand {\beamer@framepages {39}{39}}}
\@writefile{nav}{\defcounter {refsection}{0}\relax }\@writefile{nav}{\headcommand {\slideentry {3}{0}{9}{40/40}{}{0}}}
\@writefile{nav}{\defcounter {refsection}{0}\relax }\@writefile{nav}{\headcommand {\beamer@framepages {40}{40}}}
\@writefile{nav}{\defcounter {refsection}{0}\relax }\@writefile{nav}{\headcommand {\slideentry {3}{0}{10}{41/41}{}{0}}}
\@writefile{nav}{\defcounter {refsection}{0}\relax }\@writefile{nav}{\headcommand {\beamer@framepages {41}{41}}}
\@writefile{nav}{\defcounter {refsection}{0}\relax }\@writefile{nav}{\headcommand {\slideentry {3}{0}{11}{42/42}{}{0}}}
\@writefile{nav}{\defcounter {refsection}{0}\relax }\@writefile{nav}{\headcommand {\beamer@framepages {42}{42}}}
\@writefile{nav}{\defcounter {refsection}{0}\relax }\@writefile{nav}{\headcommand {\slideentry {3}{0}{12}{43/43}{}{0}}}
\@writefile{nav}{\defcounter {refsection}{0}\relax }\@writefile{nav}{\headcommand {\beamer@framepages {43}{43}}}
\@writefile{nav}{\defcounter {refsection}{0}\relax }\@writefile{nav}{\headcommand {\slideentry {3}{0}{13}{44/44}{}{0}}}
\@writefile{nav}{\defcounter {refsection}{0}\relax }\@writefile{nav}{\headcommand {\beamer@framepages {44}{44}}}
\@writefile{nav}{\defcounter {refsection}{0}\relax }\@writefile{nav}{\headcommand {\slideentry {3}{0}{14}{45/45}{}{0}}}
\@writefile{nav}{\defcounter {refsection}{0}\relax }\@writefile{nav}{\headcommand {\beamer@framepages {45}{45}}}
\@writefile{nav}{\defcounter {refsection}{0}\relax }\@writefile{nav}{\headcommand {\slideentry {3}{0}{15}{46/46}{}{0}}}
\@writefile{nav}{\defcounter {refsection}{0}\relax }\@writefile{nav}{\headcommand {\beamer@framepages {46}{46}}}
\@writefile{nav}{\defcounter {refsection}{0}\relax }\@writefile{nav}{\headcommand {\slideentry {3}{0}{16}{47/47}{}{0}}}
\@writefile{nav}{\defcounter {refsection}{0}\relax }\@writefile{nav}{\headcommand {\beamer@framepages {47}{47}}}
\@writefile{nav}{\defcounter {refsection}{0}\relax }\@writefile{nav}{\headcommand {\slideentry {3}{0}{17}{48/48}{}{0}}}
\@writefile{nav}{\defcounter {refsection}{0}\relax }\@writefile{nav}{\headcommand {\beamer@framepages {48}{48}}}
\@writefile{nav}{\defcounter {refsection}{0}\relax }\@writefile{nav}{\headcommand {\slideentry {3}{0}{18}{49/49}{}{0}}}
\@writefile{nav}{\defcounter {refsection}{0}\relax }\@writefile{nav}{\headcommand {\beamer@framepages {49}{49}}}
\@writefile{nav}{\defcounter {refsection}{0}\relax }\@writefile{nav}{\headcommand {\slideentry {3}{0}{19}{50/50}{}{0}}}
\@writefile{nav}{\defcounter {refsection}{0}\relax }\@writefile{nav}{\headcommand {\beamer@framepages {50}{50}}}
\@writefile{nav}{\defcounter {refsection}{0}\relax }\@writefile{nav}{\headcommand {\slideentry {3}{0}{20}{51/51}{}{0}}}
\@writefile{nav}{\defcounter {refsection}{0}\relax }\@writefile{nav}{\headcommand {\beamer@framepages {51}{51}}}
\BKM@entry{id=9,open,dest={4F75746C696E65302E34},srcline={1}}{5C3337365C3337375C303030415C303030725C303030645C303030755C303030695C3030306E5C3030306F5C3030303A5C3030305C3034305C303030705C3030306F5C303030735C303030735C303030695C303030625C303030695C3030306C5C303030695C3030305C3034305C303030765C303030755C3030306C5C3030306E5C303030655C303030725C303030615C303030625C303030695C3030306C5C303030695C303030745C3030305C333430}
\@writefile{toc}{\defcounter {refsection}{0}\relax }\@writefile{toc}{\beamer@sectionintoc {4}{Arduino: possibili vulnerabilit\IeC {\`a}}{52}{0}{4}}
\@writefile{nav}{\defcounter {refsection}{0}\relax }\@writefile{nav}{\headcommand {\sectionentry {4}{Arduino: possibili vulnerabilit\IeC {\`a}}{52}{Arduino: possibili vulnerabilit\IeC {\`a}}{0}}}
\@writefile{nav}{\defcounter {refsection}{0}\relax }\@writefile{nav}{\headcommand {\beamer@sectionpages {32}{51}}}
\@writefile{nav}{\defcounter {refsection}{0}\relax }\@writefile{nav}{\headcommand {\beamer@subsectionpages {32}{51}}}
\@writefile{nav}{\defcounter {refsection}{0}\relax }\@writefile{nav}{\headcommand {\slideentry {4}{0}{1}{52/52}{}{0}}}
\@writefile{nav}{\defcounter {refsection}{0}\relax }\@writefile{nav}{\headcommand {\beamer@framepages {52}{52}}}
\BKM@entry{id=10,open,dest={4F75746C696E65302E342E312E3533},srcline={3}}{5C3337365C3337375C303030535C303030705C303030655C303030635C303030695C303030665C303030695C303030635C303030685C30303065}
\@writefile{toc}{\defcounter {refsection}{0}\relax }\@writefile{toc}{\beamer@subsectionintoc {4}{1}{Specifiche}{53}{0}{4}}
\@writefile{nav}{\defcounter {refsection}{0}\relax }\@writefile{nav}{\headcommand {\beamer@subsectionentry {0}{4}{1}{53}{Specifiche}}\headcommand {\beamer@subsectionpages {52}{52}}}
\@writefile{nav}{\defcounter {refsection}{0}\relax }\@writefile{nav}{\headcommand {\slideentry {4}{1}{1}{53/53}{Specifiche}{0}}}
\@writefile{nav}{\defcounter {refsection}{0}\relax }\@writefile{nav}{\headcommand {\beamer@framepages {53}{53}}}
\citation{doukas2012building}
\citation{paper:securityAnalysisArduinoDevices}
\@writefile{nav}{\defcounter {refsection}{0}\relax }\@writefile{nav}{\headcommand {\slideentry {4}{1}{2}{54/54}{Specifiche}{0}}}
\@writefile{nav}{\defcounter {refsection}{0}\relax }\@writefile{nav}{\headcommand {\beamer@framepages {54}{54}}}
\@writefile{nav}{\defcounter {refsection}{0}\relax }\@writefile{nav}{\headcommand {\slideentry {4}{1}{3}{55/55}{Specifiche}{0}}}
\@writefile{nav}{\defcounter {refsection}{0}\relax }\@writefile{nav}{\headcommand {\beamer@framepages {55}{55}}}
\newlabel{sram_schema}{{54}{56}{Specifiche}{Doc-Start}{}}
\@writefile{snm}{\defcounter {refsection}{0}\relax }\@writefile{snm}{\beamer@slide {sram_schema}{56}}
\@writefile{nav}{\defcounter {refsection}{0}\relax }\@writefile{nav}{\headcommand {\slideentry {4}{1}{4}{56/56}{Specifiche}{0}}}
\@writefile{nav}{\defcounter {refsection}{0}\relax }\@writefile{nav}{\headcommand {\beamer@framepages {56}{56}}}
\@writefile{nav}{\defcounter {refsection}{0}\relax }\@writefile{nav}{\headcommand {\slideentry {4}{1}{5}{57/57}{Specifiche}{0}}}
\@writefile{nav}{\defcounter {refsection}{0}\relax }\@writefile{nav}{\headcommand {\beamer@framepages {57}{57}}}
\@writefile{nav}{\defcounter {refsection}{0}\relax }\@writefile{nav}{\headcommand {\slideentry {4}{1}{6}{58/58}{Specifiche}{0}}}
\@writefile{nav}{\defcounter {refsection}{0}\relax }\@writefile{nav}{\headcommand {\beamer@framepages {58}{58}}}
\@writefile{nav}{\defcounter {refsection}{0}\relax }\@writefile{nav}{\headcommand {\slideentry {4}{1}{7}{59/59}{Specifiche}{0}}}
\@writefile{nav}{\defcounter {refsection}{0}\relax }\@writefile{nav}{\headcommand {\beamer@framepages {59}{59}}}
\BKM@entry{id=11,open,dest={4F75746C696E65302E342E322E3630},srcline={64}}{5C3337365C3337375C303030415C3030306E5C303030615C3030306C5C303030695C303030735C303030695C3030305C3034305C303030645C303030695C3030305C3034305C303030735C303030695C303030635C303030755C303030725C303030655C3030307A5C3030307A5C30303061}
\@writefile{toc}{\defcounter {refsection}{0}\relax }\@writefile{toc}{\beamer@subsectionintoc {4}{2}{Analisi di sicurezza}{60}{0}{4}}
\@writefile{nav}{\defcounter {refsection}{0}\relax }\@writefile{nav}{\headcommand {\beamer@subsectionentry {0}{4}{2}{60}{Analisi di sicurezza}}\headcommand {\beamer@subsectionpages {53}{59}}}
\@writefile{nav}{\defcounter {refsection}{0}\relax }\@writefile{nav}{\headcommand {\slideentry {4}{2}{1}{60/60}{Analisi di sicurezza}{0}}}
\@writefile{nav}{\defcounter {refsection}{0}\relax }\@writefile{nav}{\headcommand {\beamer@framepages {60}{60}}}
\@writefile{nav}{\defcounter {refsection}{0}\relax }\@writefile{nav}{\headcommand {\slideentry {4}{2}{2}{61/61}{Analisi di sicurezza}{0}}}
\@writefile{nav}{\defcounter {refsection}{0}\relax }\@writefile{nav}{\headcommand {\beamer@framepages {61}{61}}}
\@writefile{nav}{\defcounter {refsection}{0}\relax }\@writefile{nav}{\headcommand {\slideentry {4}{2}{3}{62/62}{Analisi di sicurezza}{0}}}
\@writefile{nav}{\defcounter {refsection}{0}\relax }\@writefile{nav}{\headcommand {\beamer@framepages {62}{62}}}
\newlabel{sram_heap_bof}{{61}{63}{Analisi di sicurezza}{Doc-Start}{}}
\@writefile{snm}{\defcounter {refsection}{0}\relax }\@writefile{snm}{\beamer@slide {sram_heap_bof}{63}}
\@writefile{nav}{\defcounter {refsection}{0}\relax }\@writefile{nav}{\headcommand {\slideentry {4}{2}{4}{63/63}{Analisi di sicurezza}{0}}}
\@writefile{nav}{\defcounter {refsection}{0}\relax }\@writefile{nav}{\headcommand {\beamer@framepages {63}{63}}}
\citation{francillon2008code}
\citation{habibi2015mavr}
\@writefile{nav}{\defcounter {refsection}{0}\relax }\@writefile{nav}{\headcommand {\slideentry {4}{2}{5}{64/64}{Analisi di sicurezza}{0}}}
\@writefile{nav}{\defcounter {refsection}{0}\relax }\@writefile{nav}{\headcommand {\beamer@framepages {64}{64}}}
\citation{snow2013just}
\citation{sinnadurai2008transparent}
\@writefile{nav}{\defcounter {refsection}{0}\relax }\@writefile{nav}{\headcommand {\slideentry {4}{2}{6}{65/65}{Analisi di sicurezza}{0}}}
\@writefile{nav}{\defcounter {refsection}{0}\relax }\@writefile{nav}{\headcommand {\beamer@framepages {65}{65}}}
\BKM@entry{id=12,open,dest={4F75746C696E65302E35},srcline={1}}{5C3337365C3337375C303030415C3030306E5C303030615C3030306C5C303030695C303030735C303030695C3030305C3034305C303030645C303030655C3030306C5C3030305C3034305C3030306E5C3030306F5C303030735C303030745C303030725C3030306F5C3030305C3034305C303030465C303030695C303030725C3030306D5C303030775C303030615C303030725C303030655C3030305C3034305C303030415C303030725C303030645C303030755C303030695C3030306E5C3030306F}
\@writefile{toc}{\defcounter {refsection}{0}\relax }\@writefile{toc}{\beamer@sectionintoc {5}{Analisi del nostro Firmware Arduino}{66}{0}{5}}
\@writefile{nav}{\defcounter {refsection}{0}\relax }\@writefile{nav}{\headcommand {\sectionentry {5}{Analisi del nostro Firmware Arduino}{66}{Analisi del nostro Firmware Arduino}{0}}}
\@writefile{nav}{\defcounter {refsection}{0}\relax }\@writefile{nav}{\headcommand {\beamer@sectionpages {52}{65}}}
\@writefile{nav}{\defcounter {refsection}{0}\relax }\@writefile{nav}{\headcommand {\beamer@subsectionpages {60}{65}}}
\@writefile{nav}{\defcounter {refsection}{0}\relax }\@writefile{nav}{\headcommand {\slideentry {5}{0}{1}{66/66}{}{0}}}
\@writefile{nav}{\defcounter {refsection}{0}\relax }\@writefile{nav}{\headcommand {\beamer@framepages {66}{66}}}
\BKM@entry{id=13,open,dest={4F75746C696E65302E352E312E3637},srcline={3}}{5C3337365C3337375C303030505C303030615C3030306E5C3030306F5C303030725C303030615C3030306D5C303030695C303030635C30303061}
\@writefile{toc}{\defcounter {refsection}{0}\relax }\@writefile{toc}{\beamer@subsectionintoc {5}{1}{Panoramica}{67}{0}{5}}
\@writefile{nav}{\defcounter {refsection}{0}\relax }\@writefile{nav}{\headcommand {\beamer@subsectionentry {0}{5}{1}{67}{Panoramica}}\headcommand {\beamer@subsectionpages {66}{66}}}
\@writefile{nav}{\defcounter {refsection}{0}\relax }\@writefile{nav}{\headcommand {\slideentry {5}{1}{1}{67/67}{Panoramica}{0}}}
\@writefile{nav}{\defcounter {refsection}{0}\relax }\@writefile{nav}{\headcommand {\beamer@framepages {67}{67}}}
\citation{git:pllcFirmware}
\@writefile{nav}{\defcounter {refsection}{0}\relax }\@writefile{nav}{\headcommand {\slideentry {5}{1}{2}{68/68}{Panoramica}{0}}}
\@writefile{nav}{\defcounter {refsection}{0}\relax }\@writefile{nav}{\headcommand {\beamer@framepages {68}{68}}}
\@writefile{nav}{\defcounter {refsection}{0}\relax }\@writefile{nav}{\headcommand {\slideentry {5}{1}{3}{69/69}{Panoramica}{0}}}
\@writefile{nav}{\defcounter {refsection}{0}\relax }\@writefile{nav}{\headcommand {\beamer@framepages {69}{69}}}
\BKM@entry{id=14,open,dest={4F75746C696E65302E352E322E3730},srcline={22}}{5C3337365C3337375C303030445C303030695C303030635C303030685C303030695C303030615C303030725C303030615C3030307A5C303030695C3030306F5C3030306E5C303030695C3030305C3034305C303030645C303030695C3030305C3034305C303030765C303030615C303030725C303030695C303030615C303030625C303030695C3030306C5C30303069}
\@writefile{toc}{\defcounter {refsection}{0}\relax }\@writefile{toc}{\beamer@subsectionintoc {5}{2}{Dichiarazioni di variabili}{70}{0}{5}}
\@writefile{nav}{\defcounter {refsection}{0}\relax }\@writefile{nav}{\headcommand {\beamer@subsectionentry {0}{5}{2}{70}{Dichiarazioni di variabili}}\headcommand {\beamer@subsectionpages {67}{69}}}
\@writefile{nav}{\defcounter {refsection}{0}\relax }\@writefile{nav}{\headcommand {\slideentry {5}{2}{1}{70/70}{Dichiarazioni di variabili}{0}}}
\@writefile{nav}{\defcounter {refsection}{0}\relax }\@writefile{nav}{\headcommand {\beamer@framepages {70}{70}}}
\@writefile{nav}{\defcounter {refsection}{0}\relax }\@writefile{nav}{\headcommand {\slideentry {5}{2}{2}{71/71}{Dichiarazioni di variabili}{0}}}
\@writefile{nav}{\defcounter {refsection}{0}\relax }\@writefile{nav}{\headcommand {\beamer@framepages {71}{71}}}
\@writefile{lol}{\defcounter {refsection}{0}\relax }\@writefile{lol}{\contentsline {lstlisting}{../../tex_global/ino_listings/firmware.ino}}
\@writefile{lol}{\defcounter {refsection}{0}\relax }\@writefile{lol}{\contentsline {lstlisting}{../../tex_global/ino_listings/firmware.ino}}
\@writefile{nav}{\defcounter {refsection}{0}\relax }\@writefile{nav}{\headcommand {\slideentry {5}{2}{3}{72/72}{Dichiarazioni di variabili}{0}}}
\@writefile{nav}{\defcounter {refsection}{0}\relax }\@writefile{nav}{\headcommand {\beamer@framepages {72}{72}}}
\@writefile{lol}{\defcounter {refsection}{0}\relax }\@writefile{lol}{\contentsline {lstlisting}{\numberline {1}Dichiarazioni di buffer}}
\@writefile{nav}{\defcounter {refsection}{0}\relax }\@writefile{nav}{\headcommand {\slideentry {5}{2}{4}{73/73}{Dichiarazioni di variabili}{0}}}
\@writefile{nav}{\defcounter {refsection}{0}\relax }\@writefile{nav}{\headcommand {\beamer@framepages {73}{73}}}
\BKM@entry{id=15,open,dest={4F75746C696E65302E352E332E3734},srcline={50}}{5C3337365C3337375C303030435C3030306F5C3030306E5C303030745C303030725C3030306F5C3030306C5C3030306C5C3030306F5C3030305C3034305C303030735C303030755C3030306C5C3030306C5C303030615C3030305C3034305C303030645C303030695C3030306D5C303030655C3030306E5C303030735C303030695C3030306F5C3030306E5C303030655C3030305C3034305C303030645C303030655C303030675C3030306C5C303030695C3030305C3034305C303030695C3030306E5C303030645C303030695C303030635C30303069}
\@writefile{toc}{\defcounter {refsection}{0}\relax }\@writefile{toc}{\beamer@subsectionintoc {5}{3}{Controllo sulla dimensione degli indici}{74}{0}{5}}
\@writefile{nav}{\defcounter {refsection}{0}\relax }\@writefile{nav}{\headcommand {\beamer@subsectionentry {0}{5}{3}{74}{Controllo sulla dimensione degli indici}}\headcommand {\beamer@subsectionpages {70}{73}}}
\@writefile{nav}{\defcounter {refsection}{0}\relax }\@writefile{nav}{\headcommand {\slideentry {5}{3}{1}{74/74}{Controllo sulla dimensione degli indici}{0}}}
\@writefile{nav}{\defcounter {refsection}{0}\relax }\@writefile{nav}{\headcommand {\beamer@framepages {74}{74}}}
\@writefile{nav}{\defcounter {refsection}{0}\relax }\@writefile{nav}{\headcommand {\slideentry {5}{3}{2}{75/75}{Controllo sulla dimensione degli indici}{0}}}
\@writefile{nav}{\defcounter {refsection}{0}\relax }\@writefile{nav}{\headcommand {\beamer@framepages {75}{75}}}
\@writefile{lol}{\defcounter {refsection}{0}\relax }\@writefile{lol}{\contentsline {lstlisting}{../../tex_global/ino_listings/firmware.ino}}
\@writefile{nav}{\defcounter {refsection}{0}\relax }\@writefile{nav}{\headcommand {\slideentry {5}{3}{3}{76/76}{Controllo sulla dimensione degli indici}{0}}}
\@writefile{nav}{\defcounter {refsection}{0}\relax }\@writefile{nav}{\headcommand {\beamer@framepages {76}{76}}}
\@writefile{nav}{\defcounter {refsection}{0}\relax }\@writefile{nav}{\headcommand {\slideentry {5}{3}{4}{77/77}{Controllo sulla dimensione degli indici}{0}}}
\@writefile{nav}{\defcounter {refsection}{0}\relax }\@writefile{nav}{\headcommand {\beamer@framepages {77}{77}}}
\@writefile{lol}{\defcounter {refsection}{0}\relax }\@writefile{lol}{\contentsline {lstlisting}{../../tex_global/ino_listings/firmware.ino}}
\@writefile{nav}{\defcounter {refsection}{0}\relax }\@writefile{nav}{\headcommand {\slideentry {5}{3}{5}{78/78}{Controllo sulla dimensione degli indici}{0}}}
\@writefile{nav}{\defcounter {refsection}{0}\relax }\@writefile{nav}{\headcommand {\beamer@framepages {78}{78}}}
\BKM@entry{id=16,open,dest={4F75746C696E65302E352E342E3739},srcline={87}}{5C3337365C3337375C303030435C3030306F5C3030306E5C303030745C303030725C3030306F5C3030306C5C3030306C5C3030306F5C3030305C3034305C303030645C303030695C3030305C3034305C303030695C3030306E5C303030745C303030655C303030725C303030765C303030615C3030306C5C3030306C5C303030695C3030305C3034305C303030645C303030695C3030305C3034305C303030765C303030615C3030306C5C3030306F5C303030725C30303069}
\@writefile{toc}{\defcounter {refsection}{0}\relax }\@writefile{toc}{\beamer@subsectionintoc {5}{4}{Controllo di intervalli di valori}{79}{0}{5}}
\@writefile{nav}{\defcounter {refsection}{0}\relax }\@writefile{nav}{\headcommand {\beamer@subsectionentry {0}{5}{4}{79}{Controllo di intervalli di valori}}\headcommand {\beamer@subsectionpages {74}{78}}}
\@writefile{nav}{\defcounter {refsection}{0}\relax }\@writefile{nav}{\headcommand {\slideentry {5}{4}{1}{79/79}{Controllo di intervalli di valori}{0}}}
\@writefile{nav}{\defcounter {refsection}{0}\relax }\@writefile{nav}{\headcommand {\beamer@framepages {79}{79}}}
\@writefile{nav}{\defcounter {refsection}{0}\relax }\@writefile{nav}{\headcommand {\slideentry {5}{4}{2}{80/80}{Controllo di intervalli di valori}{0}}}
\@writefile{nav}{\defcounter {refsection}{0}\relax }\@writefile{nav}{\headcommand {\beamer@framepages {80}{80}}}
\@writefile{lol}{\defcounter {refsection}{0}\relax }\@writefile{lol}{\contentsline {lstlisting}{../../tex_global/ino_listings/Platypus.cpp}}
\@writefile{nav}{\defcounter {refsection}{0}\relax }\@writefile{nav}{\headcommand {\slideentry {5}{4}{3}{81/81}{Controllo di intervalli di valori}{0}}}
\@writefile{nav}{\defcounter {refsection}{0}\relax }\@writefile{nav}{\headcommand {\beamer@framepages {81}{81}}}
\@writefile{nav}{\defcounter {refsection}{0}\relax }\@writefile{nav}{\headcommand {\slideentry {5}{4}{4}{82/82}{Controllo di intervalli di valori}{0}}}
\@writefile{nav}{\defcounter {refsection}{0}\relax }\@writefile{nav}{\headcommand {\beamer@framepages {82}{82}}}
\BKM@entry{id=17,open,dest={4F75746C696E65302E36},srcline={133}}{5C3337365C3337375C303030425C303030695C303030625C3030306C5C303030695C3030306F5C303030675C303030725C303030615C303030665C303030695C30303061}
\@writefile{toc}{\defcounter {refsection}{0}\relax }\@writefile{toc}{\beamer@sectionintoc {6}{Bibliografia}{83}{0}{6}}
\@writefile{nav}{\defcounter {refsection}{0}\relax }\@writefile{nav}{\headcommand {\sectionentry {6}{Bibliografia}{83}{Bibliografia}{0}}}
\@writefile{nav}{\defcounter {refsection}{0}\relax }\@writefile{nav}{\headcommand {\beamer@sectionpages {66}{82}}}
\@writefile{nav}{\defcounter {refsection}{0}\relax }\@writefile{nav}{\headcommand {\beamer@subsectionpages {79}{82}}}
\@writefile{nav}{\defcounter {refsection}{0}\relax }\@writefile{nav}{\headcommand {\slideentry {6}{0}{1}{83/83}{}{0}}}
\@writefile{nav}{\defcounter {refsection}{0}\relax }\@writefile{nav}{\headcommand {\beamer@framepages {83}{83}}}
\@writefile{nav}{\defcounter {refsection}{0}\relax }\@writefile{nav}{\headcommand {\sectionentry {7}{Riferimenti bibliografici}{84}{Riferimenti bibliografici}{0}}}
\@writefile{nav}{\defcounter {refsection}{0}\relax }\@writefile{nav}{\headcommand {\beamer@sectionpages {83}{83}}}
\@writefile{nav}{\defcounter {refsection}{0}\relax }\@writefile{nav}{\headcommand {\beamer@subsectionpages {83}{83}}}
\@writefile{nav}{\defcounter {refsection}{0}\relax }\@writefile{nav}{\headcommand {\slideentry {7}{0}{0}{84/84}{}{0}}}
\@writefile{nav}{\defcounter {refsection}{0}\relax }\@writefile{nav}{\headcommand {\beamer@framepages {84}{84}}}
\@writefile{nav}{\defcounter {refsection}{0}\relax }\@writefile{nav}{\headcommand {\slideentry {7}{0}{0}{84/85}{}{0}}}
\@writefile{nav}{\defcounter {refsection}{0}\relax }\@writefile{nav}{\headcommand {\beamer@framepages {84}{85}}}
\@writefile{nav}{\defcounter {refsection}{0}\relax }\@writefile{nav}{\headcommand {\slideentry {7}{0}{0}{84/86}{}{0}}}
\@writefile{nav}{\defcounter {refsection}{0}\relax }\@writefile{nav}{\headcommand {\beamer@framepages {84}{86}}}
\@writefile{nav}{\defcounter {refsection}{0}\relax }\@writefile{nav}{\headcommand {\slideentry {7}{0}{0}{84/87}{}{0}}}
\@writefile{nav}{\defcounter {refsection}{0}\relax }\@writefile{nav}{\headcommand {\beamer@framepages {84}{87}}}
\@writefile{nav}{\defcounter {refsection}{0}\relax }\@writefile{nav}{\headcommand {\slideentry {8}{0}{1}{88/88}{}{0}}}
\@writefile{nav}{\defcounter {refsection}{0}\relax }\@writefile{nav}{\headcommand {\beamer@framepages {88}{88}}}
\@writefile{nav}{\headcommand {\beamer@partpages {1}{88}}}
\@writefile{nav}{\headcommand {\beamer@subsectionpages {88}{88}}}
\@writefile{nav}{\headcommand {\beamer@sectionpages {88}{88}}}
\@writefile{nav}{\headcommand {\beamer@documentpages {88}}}
\@writefile{nav}{\headcommand {\def \inserttotalframenumber {86}}}
