\relax 
\providecommand\hyper@newdestlabel[2]{}
\providecommand\BKM@entry[2]{}
\bibstyle{biblatex}
\bibdata{report_interval_analysis-blx,bibliography}
\citation{biblatex-control}
\providecommand\HyperFirstAtBeginDocument{\AtBeginDocument}
\HyperFirstAtBeginDocument{\ifx\hyper@anchor\@undefined
\global\let\oldcontentsline\contentsline
\gdef\contentsline#1#2#3#4{\oldcontentsline{#1}{#2}{#3}}
\global\let\oldnewlabel\newlabel
\gdef\newlabel#1#2{\newlabelxx{#1}#2}
\gdef\newlabelxx#1#2#3#4#5#6{\oldnewlabel{#1}{{#2}{#3}}}
\AtEndDocument{\ifx\hyper@anchor\@undefined
\let\contentsline\oldcontentsline
\let\newlabel\oldnewlabel
\fi}
\fi}
\global\let\hyper@last\relax 
\gdef\HyperFirstAtBeginDocument#1{#1}
\providecommand\HyField@AuxAddToFields[1]{}
\providecommand\HyField@AuxAddToCoFields[2]{}
\@writefile{toc}{\boolfalse {citerequest}\boolfalse {citetracker}\boolfalse {pagetracker}\boolfalse {backtracker}\relax }
\@writefile{lof}{\boolfalse {citerequest}\boolfalse {citetracker}\boolfalse {pagetracker}\boolfalse {backtracker}\relax }
\@writefile{lot}{\boolfalse {citerequest}\boolfalse {citetracker}\boolfalse {pagetracker}\boolfalse {backtracker}\relax }
\select@language{italian}
\@writefile{toc}{\defcounter {refsection}{0}\relax }\@writefile{toc}{\select@language{italian}}
\@writefile{lof}{\defcounter {refsection}{0}\relax }\@writefile{lof}{\select@language{italian}}
\@writefile{lot}{\defcounter {refsection}{0}\relax }\@writefile{lot}{\select@language{italian}}
\select@language{italian}
\@writefile{toc}{\defcounter {refsection}{0}\relax }\@writefile{toc}{\select@language{italian}}
\@writefile{lof}{\defcounter {refsection}{0}\relax }\@writefile{lof}{\select@language{italian}}
\@writefile{lot}{\defcounter {refsection}{0}\relax }\@writefile{lot}{\select@language{italian}}
\BKM@entry{id=1,dest={73656374696F6E2E31},srcline={1}}{4F6269657474697669}
\citation{web:platypusllc}
\BKM@entry{id=2,dest={73656374696F6E2E32},srcline={1}}{416E616C69736920646920496E74657276616C6C69}
\citation{moore1966interval}
\BKM@entry{id=3,dest={73756273656374696F6E2E322E31},srcline={7}}{496E74657276616C6C6920417269746D6574696369}
\@writefile{toc}{\contentsline {section}{\numberline {1}Obiettivi}{2}{section.1}}
\@writefile{toc}{\contentsline {section}{\numberline {2}Analisi di Intervalli}{2}{section.2}}
\@writefile{toc}{\contentsline {subsection}{\numberline {2.1}Intervalli Aritmetici}{2}{subsection.2.1}}
\BKM@entry{id=4,dest={73656374696F6E2E33},srcline={1}}{436173692064692053747564696F}
\BKM@entry{id=5,dest={73756273656374696F6E2E332E31},srcline={3}}{43696E656D6174696361}
\@writefile{loa}{\contentsline {algorithm}{\numberline {1}{\ignorespaces  Esempio di algoritmo per il calcolo del processo di bisezione }}{4}{algorithm.1}}
\@writefile{toc}{\contentsline {section}{\numberline {3}Casi di Studio}{5}{section.3}}
\@writefile{toc}{\contentsline {subsection}{\numberline {3.1}Cinematica}{5}{subsection.3.1}}
\@writefile{lof}{\contentsline {figure}{\numberline {1}{\ignorespaces Schema di un robot parallelo}}{5}{figure.1}}
\citation{wiki:kantTheorem}
\BKM@entry{id=6,dest={73756273656374696F6E2E332E32},srcline={35}}{416E616C6973692064656C6C652053696E676F6C617269745C333430}
\@writefile{toc}{\contentsline {subsection}{\numberline {3.2}Analisi delle Singolarit\IeC {\`a}}{6}{subsection.3.2}}
\citation{jansson1999algorithm}
\citation{merlet2006regularity}
\BKM@entry{id=7,dest={73656374696F6E2E34},srcline={1}}{4661756C74205472656573}
\citation{dugan1996new}
\citation{vesely1981fault}
\citation{visinsky1994robotic}
\@writefile{toc}{\contentsline {section}{\numberline {4}Fault Trees}{7}{section.4}}
\citation{guth1991probabilistic}
\citation{roberts1996use}
\citation{web:montecarlo}
\@writefile{lof}{\contentsline {figure}{\numberline {2}{\ignorespaces Schema di un braccio robotico composto da giunti, attuatori e sensori}}{8}{figure.2}}
\@writefile{lof}{\contentsline {figure}{\numberline {3}{\ignorespaces Rappresentazione tramite porte logiche di un Fault Tree}}{9}{figure.3}}
\@writefile{lof}{\contentsline {figure}{\numberline {4}{\ignorespaces Probabilit\IeC {\`a} di fallimento di un motore}}{10}{figure.4}}
\BKM@entry{id=8,dest={73756273656374696F6E2E342E31},srcline={110}}{446566696E697A696F6E652065207265676F6C65}
\@writefile{toc}{\contentsline {subsection}{\numberline {4.1}Definizione e regole}{11}{subsection.4.1}}
\BKM@entry{id=9,dest={73756273656374696F6E2E342E32},srcline={180}}{416C676F7269746D6F20646920636F6D707574617A696F6E65}
\@writefile{toc}{\contentsline {subsection}{\numberline {4.2}Algoritmo di computazione}{12}{subsection.4.2}}
\citation{web:montecarlo}
\citation{paper:bid}
\BKM@entry{id=10,dest={73656374696F6E2E35},srcline={1}}{506F73736962696C692076756C6E65726162696C69745C333430206E6569206669726D776172652041726475696E6F}
\BKM@entry{id=11,dest={73756273656374696F6E2E352E31},srcline={5}}{4C27616D6269656E74652041726475696E6F}
\citation{doukas2012building}
\citation{paper:securityAnalysisArduinoDevices}
\citation{snow2013just}
\citation{sinnadurai2008transparent}
\citation{francillon2008code}
\@writefile{toc}{\contentsline {section}{\numberline {5}Possibili vulnerabilit\IeC {\`a} nei firmware Arduino}{13}{section.5}}
\@writefile{toc}{\contentsline {subsection}{\numberline {5.1}L'ambiente Arduino}{13}{subsection.5.1}}
\BKM@entry{id=12,dest={73756273656374696F6E2E352E32},srcline={41}}{416E616C697369206469205369637572657A7A612073756C6C27616D6269656E7465}
\@writefile{toc}{\contentsline {subsection}{\numberline {5.2}Analisi di Sicurezza sull'ambiente}{14}{subsection.5.2}}
\citation{francillon2008code}
\citation{habibi2015mavr}
\newlabel{sram_heap_bof}{{5.2}{15}{Analisi di Sicurezza sull'ambiente}{subsection.5.2}{}}
\@writefile{lof}{\contentsline {figure}{\numberline {5}{\ignorespaces ATmega32u4 Heap Buffer Overflow}}{15}{figure.5}}
\BKM@entry{id=13,dest={73756273656374696F6E2E352E33},srcline={85}}{4573656D7069206469206174746163636F}
\newlabel{sram_schema}{{5.2}{16}{Analisi di Sicurezza sull'ambiente}{figure.5}{}}
\@writefile{lof}{\contentsline {figure}{\numberline {6}{\ignorespaces ATmega32u4 schema della memoria SRAM}}{16}{figure.6}}
\@writefile{toc}{\contentsline {subsection}{\numberline {5.3}Esempi di attacco}{16}{subsection.5.3}}
\@writefile{lol}{\contentsline {lstlisting}{\numberline {1}Loop in cui si effettua l'Heap Buffer Overflow}{16}{lstlisting.1}}
\citation{bhatkar2003address}
\citation{habibi2015mavr}
\citation{francillon2008code}
\citation{habibi2015mavr}
\BKM@entry{id=14,dest={73656374696F6E2E36},srcline={1}}{416E616C6973692064656C206E6F7374726F206669726D776172652041726475696E6F}
\citation{git:pllcFirmware}
\BKM@entry{id=15,dest={73756273656374696F6E2E362E31},srcline={14}}{44696368696172617A696F6E6920646920766172696162696C69}
\@writefile{toc}{\contentsline {section}{\numberline {6}Analisi del nostro firmware Arduino}{18}{section.6}}
\@writefile{toc}{\contentsline {subsection}{\numberline {6.1}Dichiarazioni di variabili}{18}{subsection.6.1}}
\citation{doc:sizet}
\citation{doc:uint32t}
\BKM@entry{id=16,dest={73756273656374696F6E2E362E32},srcline={48}}{436F6E74726F6C6C6F2073756C6C612064696D656E73696F6E65206465676C6920696E64696369}
\@writefile{lol}{\contentsline {lstlisting}{\numberline {2}Dichiarazione della lunghezza di un buffer}{19}{lstlisting.2}}
\@writefile{lol}{\contentsline {lstlisting}{\numberline {3}Dichiarazione dell indice in un buffer}{19}{lstlisting.3}}
\@writefile{lol}{\contentsline {lstlisting}{\numberline {4}Dichiarazioni di variabili contatori}{19}{lstlisting.4}}
\@writefile{lol}{\contentsline {lstlisting}{\numberline {5}Dichiarazioni di buffer}{19}{lstlisting.5}}
\@writefile{toc}{\contentsline {subsection}{\numberline {6.2}Controllo sulla dimensione degli indici}{19}{subsection.6.2}}
\BKM@entry{id=17,dest={73756273656374696F6E2E362E33},srcline={64}}{436F6E74726F6C6C6F20646920696E74657276616C6C692064692076616C6F7269}
\@writefile{lol}{\contentsline {lstlisting}{\numberline {6}Controllo dell'indice per l'accesso ai motori}{20}{lstlisting.6}}
\@writefile{lol}{\contentsline {lstlisting}{\numberline {7}Controllo dell'indice per l'accesso ai sensori}{20}{lstlisting.7}}
\@writefile{toc}{\contentsline {subsection}{\numberline {6.3}Controllo di intervalli di valori}{20}{subsection.6.3}}
\BKM@entry{id=18,dest={73656374696F6E2E37},srcline={1}}{436F6E636C7573696F6E69}
\@writefile{lol}{\contentsline {lstlisting}{\numberline {8}Controllo dell'intervallo della velocit\IeC {\`a} di un motore}{21}{lstlisting.8}}
\@writefile{toc}{\contentsline {section}{\numberline {7}Conclusioni}{21}{section.7}}
